stm32f7xx_hal_dcmi.c:143:26:HAL_DCMI_Init	16	static
stm32f7xx_hal_dcmi.c:225:19:HAL_DCMI_DeInit	16	static
stm32f7xx_hal_dcmi.c:248:13:HAL_DCMI_MspInit	16	static
stm32f7xx_hal_dcmi.c:264:13:HAL_DCMI_MspDeInit	16	static
stm32f7xx_hal_dcmi.c:303:19:HAL_DCMI_Start_DMA	40	static
stm32f7xx_hal_dcmi.c:376:19:HAL_DCMI_Stop	24	static
stm32f7xx_hal_dcmi.c:431:6:HAL_DCMI_IRQHandler	16	static
stm32f7xx_hal_dcmi.c:546:13:HAL_DCMI_ErrorCallback	16	static
stm32f7xx_hal_dcmi.c:562:13:HAL_DCMI_LineEventCallback	16	static
stm32f7xx_hal_dcmi.c:575:13:HAL_DCMI_VsyncEventCallback	16	static
stm32f7xx_hal_dcmi.c:591:13:HAL_DCMI_FrameEventCallback	16	static
stm32f7xx_hal_dcmi.c:631:19:HAL_DCMI_ConfigCROP	24	static
stm32f7xx_hal_dcmi.c:664:19:HAL_DCMI_DisableCROP	16	static
stm32f7xx_hal_dcmi.c:690:19:HAL_DCMI_EnableCROP	16	static
stm32f7xx_hal_dcmi.c:736:23:HAL_DCMI_GetState	16	static
stm32f7xx_hal_dcmi.c:747:10:HAL_DCMI_GetError	16	static
stm32f7xx_hal_dcmi.c:765:13:DCMI_DMAConvCplt	24	static
stm32f7xx_hal_dcmi.c:819:13:DCMI_DMAError	24	static
