stm32f7xx_ll_fmc.c:150:20:FMC_NORSRAM_Init	24	static
stm32f7xx_ll_fmc.c:229:19:FMC_NORSRAM_DeInit	24	static
stm32f7xx_ll_fmc.c:266:19:FMC_NORSRAM_Timing_Init	32	static
stm32f7xx_ll_fmc.c:320:20:FMC_NORSRAM_Extended_Timing_Init	32	static
stm32f7xx_ll_fmc.c:388:19:FMC_NORSRAM_WriteOperation_Enable	16	static
stm32f7xx_ll_fmc.c:406:19:FMC_NORSRAM_WriteOperation_Disable	16	static
stm32f7xx_ll_fmc.c:475:19:FMC_NAND_Init	24	static
stm32f7xx_ll_fmc.c:520:19:FMC_NAND_CommonSpace_Timing_Init	32	static
stm32f7xx_ll_fmc.c:559:19:FMC_NAND_AttributeSpace_Timing_Init	32	static
stm32f7xx_ll_fmc.c:595:19:FMC_NAND_DeInit	16	static
stm32f7xx_ll_fmc.c:639:19:FMC_NAND_ECC_Enable	16	static
stm32f7xx_ll_fmc.c:658:19:FMC_NAND_ECC_Disable	16	static
stm32f7xx_ll_fmc.c:678:19:FMC_NAND_GetECC	32	static
stm32f7xx_ll_fmc.c:762:19:FMC_SDRAM_Init	24	static
stm32f7xx_ll_fmc.c:844:19:FMC_SDRAM_Timing_Init	32	static
stm32f7xx_ll_fmc.c:915:19:FMC_SDRAM_DeInit	16	static
stm32f7xx_ll_fmc.c:956:19:FMC_SDRAM_WriteProtection_Enable	16	static
stm32f7xx_ll_fmc.c:973:19:FMC_SDRAM_WriteProtection_Disable	16	static
stm32f7xx_ll_fmc.c:993:19:FMC_SDRAM_SendCommand	32	static
stm32f7xx_ll_fmc.c:1039:19:FMC_SDRAM_ProgramRefreshRate	16	static
stm32f7xx_ll_fmc.c:1057:19:FMC_SDRAM_SetAutoRefreshNumber	16	static
stm32f7xx_ll_fmc.c:1078:10:FMC_SDRAM_GetModeStatus	24	static
